1 1 0/f
1 1 1/f
1 1 2/f
1 1 3/f
1 1 4/f
1 1 5/f
1 1 6/f
1 1 7/f
1 1 8/f
1 1 9/f
1 1 )/f
1 2 (/f
2 2 1/f
2 2 2/f
2 2 3/f
2 2 4/f
2 2 5/f
2 2 6/f
2 2 7/f
2 2 8/f
2 2 9/f
2 2 (/f
2 2 )/f
2 3 0/f
3 2 1/f
3 2 2/f
3 2 3/f
3 2 4/f
3 2 5/f
3 2 6/f
3 2 7/f
3 2 8/f
3 2 9/f
3 2 (/f
3 2 )/f
3 4 0/f
4 4 0/f
4 2 1/f
4 2 2/f
4 2 3/f
4 2 4/f
4 2 5/f
4 2 6/f
4 2 8/f
4 2 9/f
4 2 (/f
4 2 )/f
4 5 7/f
5 5 0/f
5 5 1/f
5 5 2/f
5 5 3/f
5 5 4/f
5 5 5/f
5 5 6/f
5 5 7/f
5 5 8/f
5 5 9/f
5 5 (/f
5 6 )/t
6 6 0/t
6 6 1/t
6 6 2/t
6 6 3/t
6 6 4/t
6 6 5/t
6 6 6/t
6 6 7/t
6 6 8/t
6 6 9/t
6 6 (/t
6 6 )/t
